…
abc <- read_csv("https://storybench.org/reinventingtv/abc7ny.csv")

kcra <- read_csv("https://storybench.org/reinventingtv/kcra.csv")
```

# Data Wrangling & Visiualization for questions

```r
abc %>% 
  mutate(dataset = "abc")
```

```
## # A tibble: 9,745 x 7
##    datetime   headline       url         teaser      feed_name feed_url  dataset
##    <chr>      <chr>          <chr>       <chr>       <chr>     <chr>     <chr>  
##  1 July 18, … 9-year-old bo… http://abc… "Tyler Car… abc7ny.c… http://a… abc    
##  2 July 18, … 10-year-old b… http://abc… "The Coast… abc7ny.c… http://a… abc    
##  3 July 18, … 10-year-old b… http://abc… "A 10-year… abc7ny.c… http://a… abc    
##  4 July 18, … American Airl… http://abc… "Al Blackm… abc7ny.c… http://a… abc    
##  5 July 18, … 12-year-old g… http://abc… "Daphne Yu… abc7ny.c… http://a… abc    
##  6 July 18, … Exclusive: Da… http://abc… "In an exc… abc7ny.c… http://a… abc    
##  7 July 18, … Watch '50Plus… http://abc… "50PlusPri… abc7ny.c… http://a… abc    
##  8 July 18, … 10-year-old b… http://abc… "The incid… abc7ny.c… http://a… abc    
##  9 July 18, … Filmmaker Al … http://abc… "The Maysl… abc7ny.c… http://a… abc    
## 10 July 18, … The Trend: Th… http://abc… "David Nov… abc7ny.c… http://a… abc    
## # … with 9,735 more rows
```
…
