…
```r
question3 
```

```
## # A tibble: 6,604 x 20
##    volume_id book_id chapter_id verse_id volume_title   book_title
##        <dbl>   <dbl>      <dbl>    <dbl> <chr>          <chr>     
##  1         3      67       1190    31103 Book of Mormon 1 Nephi   
##  2         3      67       1190    31104 Book of Mormon 1 Nephi   
##  3         3      67       1190    31105 Book of Mormon 1 Nephi   
##  4         3      67       1190    31106 Book of Mormon 1 Nephi   
##  5         3      67       1190    31107 Book of Mormon 1 Nephi   
##  6         3      67       1190    31108 Book of Mormon 1 Nephi   
##  7         3      67       1190    31109 Book of Mormon 1 Nephi   
##  8         3      67       1190    31110 Book of Mormon 1 Nephi   
##  9         3      67       1190    31111 Book of Mormon 1 Nephi   
## 10         3      67       1190    31112 Book of Mormon 1 Nephi   
## # … with 6,594 more rows, and 14 more variables: volume_long_title <chr>,
## #   book_long_title <chr>, volume_subtitle <chr>, book_subtitle <chr>,
## #   volume_short_title <chr>, book_short_title <chr>, volume_lds_url <chr>,
## #   book_lds_url <chr>, chapter_number <dbl>, verse_number <dbl>,
## #   scripture_text <chr>, verse_title <chr>, verse_short_title <chr>,
## #   word_count <int>
```
…
